^C:\USERS\JUSTIN\DOCUMENTS\VISUAL STUDIO 2013\PROJECTS\AESIMPLEMENTATION\AESIMPLEMENTATION\AES.CPP
/c /ZI /nologo /W3 /WX- /sdl /Od /Oy- /D _MBCS /Gm /EHsc /RTC1 /MDd /GS /fp:precise /Zc:wchar_t /Zc:forScope /Fo"DEBUG\\" /Fd"DEBUG\VC120.PDB" /Gd /TP /analyze- C:\USERS\JUSTIN\DOCUMENTS\VISUAL STUDIO 2013\PROJECTS\AESIMPLEMENTATION\AESIMPLEMENTATION\AES.CPP
^C:\USERS\JUSTIN\DOCUMENTS\VISUAL STUDIO 2013\PROJECTS\AESIMPLEMENTATION\AESIMPLEMENTATION\MAIN.CPP
/c /ZI /nologo /W3 /WX- /sdl /Od /Oy- /D _MBCS /Gm /EHsc /RTC1 /MDd /GS /fp:precise /Zc:wchar_t /Zc:forScope /Fo"DEBUG\\" /Fd"DEBUG\VC120.PDB" /Gd /TP /analyze- C:\USERS\JUSTIN\DOCUMENTS\VISUAL STUDIO 2013\PROJECTS\AESIMPLEMENTATION\AESIMPLEMENTATION\MAIN.CPP
